{
   "investedAmount": 32323.0,
   "yearlyInterestRate": 9.5512,
   "maturityTotalDays": 1981,
   "maturityBusinessDays": 1409,
   "maturityDate": "2023-03-03T00:00:00",
   "rate": 123.0,
   "isTaxFree": false
}
